{
  "endpoint": "https://android.googleapis.com/gcm/send/fgho4qTYi74:APA91bFmN5yWDsTdSuL4KDitGuszQb8FsbVcnJqTLnPVDy2wFPLoitkfBB38JF93jKLXN3Aly2XOeIyfbSluGeEL-ZM2uUSg9twwt3z7zeb3MpX7efSwf6qxHeuwHnqL5pkzhFG-tSyf",
  "expirationTime": "",
  "keys": {
    "p256dh": "BIPMIKA1NLdzZbRUMzZpzTssi4eI-lLZHSwwOhgX1hIxm9zZKEZtOtAocL1sIWxNi6B3jbM8Sm56B216nGuOU8g=",
    "auth": "4bIU4oHWRNgurH5aEfTJ6g=="
  },
  "test": "test"
}